\relax 
\providecommand\hyper@newdestlabel[2]{}
\@writefile{toc}{\contentsline {chapter}{\numberline {1}Vacuum energy and Casimir Energy}{1}{chapter.1}}
\@writefile{lof}{\addvspace {10\p@ }}
\@writefile{lot}{\addvspace {10\p@ }}
\newlabel{cha:DefAndCasimir}{{1}{1}{Vacuum energy and Casimir Energy}{chapter.1}{}}
\@writefile{toc}{\contentsline {section}{\numberline {1.1}``Bare'',``classical'' and ``quantum'' cosmological constant (CC)}{1}{section.1.1}}
\newlabel{sec:BCQCosmConst}{{1.1}{1}{``Bare'',``classical'' and ``quantum'' cosmological constant (CC)}{section.1.1}{}}
\newlabel{no1_1}{{\relax 1.1}{1}{``Bare'',``classical'' and ``quantum'' cosmological constant (CC)}{equation.1.1.1}{}}
\newlabel{no1_2}{{\relax 1.2}{1}{``Bare'',``classical'' and ``quantum'' cosmological constant (CC)}{equation.1.1.2}{}}
\newlabel{no1_3}{{\relax 1.3}{1}{``Bare'',``classical'' and ``quantum'' cosmological constant (CC)}{equation.1.1.3}{}}
\newlabel{no1_3a}{{\relax 1.4}{1}{``Bare'',``classical'' and ``quantum'' cosmological constant (CC)}{equation.1.1.4}{}}
\citation{Martin:2012bt}
\newlabel{no1_3b}{{\relax 1.5}{2}{``Bare'',``classical'' and ``quantum'' cosmological constant (CC)}{equation.1.1.5}{}}
\newlabel{no1_3c}{{\relax 1.6}{2}{``Bare'',``classical'' and ``quantum'' cosmological constant (CC)}{equation.1.1.6}{}}
\newlabel{no1_4}{{\relax 1.7}{2}{``Bare'',``classical'' and ``quantum'' cosmological constant (CC)}{equation.1.1.7}{}}
\newlabel{no1_4a}{{\relax 1.8}{2}{``Bare'',``classical'' and ``quantum'' cosmological constant (CC)}{equation.1.1.8}{}}
\newlabel{no1_4b}{{\relax 1.9}{2}{``Bare'',``classical'' and ``quantum'' cosmological constant (CC)}{equation.1.1.9}{}}
\@writefile{toc}{\contentsline {subsection}{\numberline {1.1.1}Classical cosmological constant problem.}{2}{subsection.1.1.1}}
\newlabel{subsec:classicalCC}{{1.1.1}{2}{Classical cosmological constant problem}{subsection.1.1.1}{}}
\@writefile{toc}{\contentsline {subsubsection}{\nonumberline Electroweak contributions.}{2}{section*.2}}
\newlabel{subsubsec:EW}{{1.1.1}{2}{Electroweak contributions}{section*.2}{}}
\citation{Martin:2012bt}
\@writefile{toc}{\contentsline {subsubsection}{\nonumberline QCD contributions.}{3}{section*.3}}
\newlabel{subsubsec:QCD}{{1.1.1}{3}{QCD contributions}{section*.3}{}}
\@writefile{toc}{\contentsline {subsection}{\numberline {1.1.2}Quantum contribution to the CC.}{3}{subsection.1.1.2}}
\newlabel{subsec:quantumCC}{{1.1.2}{3}{Quantum contribution to the CC}{subsection.1.1.2}{}}
\citation{Martin:2012bt,Akhmedov:2002ts,Koksma:2011cq}
\@writefile{toc}{\contentsline {subsubsection}{\nonumberline A toy model: free scalar theory}{4}{section*.4}}
\newlabel{sec:toy}{{1.1.2}{4}{A toy model: free scalar theory}{section*.4}{}}
\newlabel{no221_1}{{\relax 1.11}{4}{A toy model: free scalar theory}{equation.1.1.11}{}}
\newlabel{no221_2}{{\relax 1.12}{4}{A toy model: free scalar theory}{equation.1.1.12}{}}
\newlabel{no221_2a}{{\relax 1.13}{4}{A toy model: free scalar theory}{equation.1.1.13}{}}
\newlabel{no221_3}{{\relax 1.14}{4}{A toy model: free scalar theory}{equation.1.1.14}{}}
\newlabel{no221_4}{{\relax 1.15}{4}{A toy model: free scalar theory}{equation.1.1.15}{}}
\newlabel{no221_5}{{\relax 1.16}{4}{A toy model: free scalar theory}{equation.1.1.16}{}}
\@writefile{toc}{\contentsline {paragraph}{\nonumberline Cut-off regularization.}{5}{section*.5}}
\newlabel{no2211_1}{{\relax 1.17}{5}{Cut-off regularization}{equation.1.1.17}{}}
\newlabel{no2211_2}{{\relax 1.18}{5}{Cut-off regularization}{equation.1.1.18}{}}
\newlabel{no2211_2a}{{\relax 1.19}{5}{Cut-off regularization}{equation.1.1.19}{}}
\newlabel{no2211_2b}{{\relax 1.20}{5}{Cut-off regularization}{equation.1.1.20}{}}
\citation{Martin:2012bt}
\@writefile{toc}{\contentsline {paragraph}{\nonumberline Dimensional regularization.}{6}{section*.6}}
\newlabel{no2212_a}{{\relax 1.22}{6}{Dimensional regularization}{equation.1.1.22}{}}
\newlabel{no2212_b}{{\relax 1.23}{6}{Dimensional regularization}{equation.1.1.23}{}}
\newlabel{no2212_1}{{\relax 1.24}{6}{Dimensional regularization}{equation.1.1.24}{}}
\newlabel{no2212_2}{{\relax 1.25}{7}{Dimensional regularization}{equation.1.1.25}{}}
\@writefile{toc}{\contentsline {subsubsection}{\nonumberline The vacuum and Feynman diagrams}{7}{section*.7}}
\newlabel{subsubsec:Feyn}{{1.1.2}{7}{The vacuum and Feynman diagrams}{section*.7}{}}
\newlabel{no222_a}{{\relax 1.26}{7}{The vacuum and Feynman diagrams}{equation.1.1.26}{}}
\newlabel{no222_b}{{\relax 1.27}{7}{The vacuum and Feynman diagrams}{equation.1.1.27}{}}
\newlabel{no222_c}{{\relax 1.28}{7}{The vacuum and Feynman diagrams}{equation.1.1.28}{}}
\newlabel{no222_d}{{\relax 1.29}{7}{The vacuum and Feynman diagrams}{equation.1.1.29}{}}
\newlabel{no222_e}{{\relax 1.30}{7}{The vacuum and Feynman diagrams}{equation.1.1.30}{}}
\newlabel{no222_1}{{\relax 1.31}{8}{The vacuum and Feynman diagrams}{equation.1.1.31}{}}
\newlabel{no222_1a}{{\relax 1.32}{8}{The vacuum and Feynman diagrams}{equation.1.1.32}{}}
\@writefile{toc}{\contentsline {subsubsection}{\nonumberline Interacting theories}{8}{section*.8}}
\newlabel{no2222_a}{{\relax 1.33}{8}{Interacting theories}{equation.1.1.33}{}}
\newlabel{no2222_b}{{\relax 1.34}{8}{Interacting theories}{equation.1.1.34}{}}
\newlabel{no2222_c}{{\relax 1.35}{9}{Interacting theories}{equation.1.1.35}{}}
\newlabel{no2222_d}{{\relax 1.36}{9}{Interacting theories}{equation.1.1.36}{}}
\citation{Martin:2012bt}
\citation{Martin:2012bt}
\citation{Martin:2012bt}
\citation{Patrignani:2016xqp}
\citation{Koksma:2011cq}
\newlabel{no2222_e}{{\relax 1.44}{11}{Interacting theories}{equation.1.1.44}{}}
\@writefile{toc}{\contentsline {subsection}{\numberline {1.1.3}The cosmological constant problem: its two sides}{11}{subsection.1.1.3}}
\newlabel{subsec:twoside}{{1.1.3}{11}{The cosmological constant problem: its two sides}{subsection.1.1.3}{}}
\@writefile{toc}{\contentsline {subsubsection}{\nonumberline The value of the cosmological constant}{11}{section*.9}}
\newlabel{subsubsec:value}{{1.1.3}{11}{The value of the cosmological constant}{section*.9}{}}
\newlabel{no231_1}{{\relax 1.45}{11}{The value of the cosmological constant}{equation.1.1.45}{}}
\newlabel{no231_1a}{{\relax 1.46}{11}{The value of the cosmological constant}{equation.1.1.46}{}}
\citation{Padilla:2015aaa}
\@writefile{lof}{\contentsline {figure}{\numberline {\relax 1.1}{\ignorespaces Dependence of the first term in ~\textup  {\hbox {\mathsurround \z@ \normalfont  (\ignorespaces \ref  {no231_1a}\unskip \@@italiccorr )}} on the renormalization scale $\mu $.}}{12}{figure.1.1}}
\newlabel{Fig1}{{\relax 1.1}{12}{Dependence of the first term in ~\eqref {no231_1a} on the renormalization scale $\mu $}{figure.1.1}{}}
\@writefile{toc}{\contentsline {subsubsection}{\nonumberline Radiative instability.}{12}{section*.10}}
\newlabel{subsubsec:radiativeinst}{{1.1.3}{12}{Radiative instability}{section*.10}{}}
\newlabel{no232_1}{{\relax 1.47}{12}{Radiative instability}{equation.1.1.47}{}}
\newlabel{no232_2}{{\relax 1.48}{13}{Radiative instability}{equation.1.1.48}{}}
\newlabel{no232_3}{{\relax 1.49}{13}{Radiative instability}{equation.1.1.49}{}}
\@writefile{toc}{\contentsline {section}{\numberline {1.2}Casimir energy}{13}{section.1.2}}
\newlabel{sec:Casimir}{{1.2}{13}{Casimir energy}{section.1.2}{}}
\newlabel{no3_1}{{\relax 1.50}{14}{Casimir energy}{equation.1.2.50}{}}
\newlabel{no3_1a}{{\relax 1.51}{14}{Casimir energy}{equation.1.2.51}{}}
\newlabel{no3_1b}{{\relax 1.52}{14}{Casimir energy}{equation.1.2.52}{}}
\newlabel{no3_2}{{\relax 1.54}{14}{Casimir energy}{equation.1.2.54}{}}
\newlabel{no3_3}{{\relax 1.55}{14}{Casimir energy}{equation.1.2.55}{}}
\citation{Schwartz:2013pla}
\newlabel{no3_4}{{\relax 1.56}{15}{Casimir energy}{equation.1.2.56}{}}
\newlabel{no3_5}{{\relax 1.57}{15}{Casimir energy}{equation.1.2.57}{}}
\newlabel{no3_5a}{{\relax 1.57}{15}{Casimir energy}{equation.1.2.57}{}}
\newlabel{no3_5b}{{\relax 1.58}{15}{Casimir energy}{equation.1.2.58}{}}
\citation{Lamoreaux:1996wh}
\citation{Milton:2001yy}
\citation{Martin:2012bt}
\@writefile{toc}{\contentsline {section}{\numberline {1.3}Outlook}{16}{section.1.3}}
\newlabel{sec:conclusion}{{1.3}{16}{Outlook}{section.1.3}{}}
\@setckpt{Main/01VacuumEnergyIvan}{
\setcounter{page}{18}
\setcounter{equation}{60}
\setcounter{enumi}{0}
\setcounter{enumii}{0}
\setcounter{enumiii}{0}
\setcounter{enumiv}{0}
\setcounter{footnote}{6}
\setcounter{mpfootnote}{0}
\setcounter{part}{0}
\setcounter{chapter}{1}
\setcounter{section}{3}
\setcounter{subsection}{0}
\setcounter{subsubsection}{0}
\setcounter{paragraph}{0}
\setcounter{subparagraph}{0}
\setcounter{figure}{1}
\setcounter{table}{0}
\setcounter{blindtext}{1}
\setcounter{Blindtext}{5}
\setcounter{blind@countparstart}{0}
\setcounter{blindlist}{0}
\setcounter{blindlistlevel}{0}
\setcounter{blindlist@level}{0}
\setcounter{blind@listcount}{0}
\setcounter{blind@levelcount}{0}
\setcounter{blind@randomcount}{0}
\setcounter{blind@randommax}{0}
\setcounter{blind@pangramcount}{0}
\setcounter{blind@pangrammax}{0}
\setcounter{parentequation}{0}
\setcounter{Item}{0}
\setcounter{Hfootnote}{6}
\setcounter{bookmark@seq@number}{8}
\setcounter{fmfgraph}{1}
\setcounter{section@level}{1}
}
