\relax 
\providecommand\hyper@newdestlabel[2]{}
\citation{Weinberg:1988cp}
\citation{Weinberg:1988cp}
\citation{Weinberg:1988cp}
\@writefile{toc}{\contentsline {chapter}{\numberline {2}The Cosmological Constant Problem}{19}{chapter.2}}
\@writefile{lof}{\addvspace {10\p@ }}
\@writefile{lot}{\addvspace {10\p@ }}
\newlabel{cha:nogo}{{2}{19}{The Cosmological Constant Problem}{chapter.2}{}}
\@writefile{toc}{\contentsline {section}{\numberline {2.1}Introduction: the Cosmological Constant}{19}{section.2.1}}
\@writefile{toc}{\contentsline {paragraph}{\nonumberline An old crisis}{19}{section*.11}}
\citation{Weinberg:1988cp}
\citation{Weinberg:1988cp}
\citation{Padilla:2015aaa}
\@writefile{toc}{\contentsline {section}{\numberline {2.2}The Problem}{21}{section.2.2}}
\newlabel{eq:rhoV}{{\relax 2.9}{21}{The Problem}{equation.2.2.9}{}}
\citation{Weinberg:1988cp}
\citation{Weinberg:1988cp}
\newlabel{eq:cutoff}{{\relax 2.11}{22}{The Problem}{equation.2.2.11}{}}
\citation{Weinberg:1988cp}
\citation{Weinberg:1988cp}
\newlabel{eq:eom}{{\relax 2.15}{23}{The Problem}{equation.2.2.15}{}}
\citation{Weinberg:1988cp}
\@writefile{toc}{\contentsline {section}{\numberline {2.3}A No-go Theorem}{24}{section.2.3}}
\@writefile{toc}{\contentsline {paragraph}{\nonumberline Adjustment mechanism}{24}{section*.12}}
\newlabel{eq:adjust}{{\relax 2.19}{24}{Adjustment mechanism}{equation.2.3.19}{}}
\newlabel{eq:symc}{{\relax 2.20}{24}{Adjustment mechanism}{equation.2.3.20}{}}
\citation{Weinberg:1988cp}
\citation{Weinberg:1988cp}
\citation{Peccei:1987mm}
\citation{Peccei:1987mm}
\newlabel{eq:phisource}{{\relax 2.24}{25}{Adjustment mechanism}{equation.2.3.24}{}}
\@writefile{toc}{\contentsline {paragraph}{\nonumberline Conformal Anomalies}{25}{section*.13}}
\citation{Weinberg:1988cp}
\@writefile{toc}{\contentsline {paragraph}{\nonumberline Changing Gravity}{26}{section*.14}}
\newlabel{eq:traceless}{{\relax 2.31}{26}{Changing Gravity}{equation.2.3.31}{}}
\citation{Weinberg:1988cp}
\citation{Weinberg:1988cp}
\citation{Zumino:1974bg}
\@writefile{toc}{\contentsline {section}{\numberline {2.4}Solution: Supersymmetry (SUSY)}{28}{section.2.4}}
\newlabel{eq:SUSY}{{\relax 2.34}{28}{Solution: Supersymmetry (SUSY)}{equation.2.4.34}{}}
\newlabel{eq:vac}{{\relax 2.35}{28}{Solution: Supersymmetry (SUSY)}{equation.2.4.35}{}}
\citation{Hawking:1984hk}
\citation{Weinberg:1988cp}
\@writefile{toc}{\contentsline {section}{\numberline {2.5}Solution: Quantum Gravity and Quantum Cosmology}{29}{section.2.5}}
\newlabel{eq:WheelerDeWitt}{{\relax 2.40}{29}{Solution: Quantum Gravity and Quantum Cosmology}{equation.2.5.40}{}}
\citation{Weinberg:1988cp}
\citation{Weinberg:1988cp}
\newlabel{eq:result}{{\relax 2.48}{30}{Solution: Quantum Gravity and Quantum Cosmology}{equation.2.5.48}{}}
\@writefile{toc}{\contentsline {subsection}{\numberline {2.5.1}Conclusion}{31}{subsection.2.5.1}}
\@setckpt{Main/02CosmoConst_wgh}{
\setcounter{page}{32}
\setcounter{equation}{48}
\setcounter{enumi}{3}
\setcounter{enumii}{0}
\setcounter{enumiii}{0}
\setcounter{enumiv}{0}
\setcounter{footnote}{12}
\setcounter{mpfootnote}{0}
\setcounter{part}{0}
\setcounter{chapter}{2}
\setcounter{section}{5}
\setcounter{subsection}{1}
\setcounter{subsubsection}{0}
\setcounter{paragraph}{0}
\setcounter{subparagraph}{0}
\setcounter{figure}{0}
\setcounter{table}{0}
\setcounter{blindtext}{1}
\setcounter{Blindtext}{5}
\setcounter{blind@countparstart}{0}
\setcounter{blindlist}{0}
\setcounter{blindlistlevel}{0}
\setcounter{blindlist@level}{0}
\setcounter{blind@listcount}{0}
\setcounter{blind@levelcount}{0}
\setcounter{blind@randomcount}{0}
\setcounter{blind@randommax}{0}
\setcounter{blind@pangramcount}{0}
\setcounter{blind@pangrammax}{0}
\setcounter{parentequation}{0}
\setcounter{Item}{3}
\setcounter{Hfootnote}{18}
\setcounter{bookmark@seq@number}{15}
\setcounter{fmfgraph}{1}
\setcounter{section@level}{2}
}
