\relax 
\providecommand\hyper@newdestlabel[2]{}
\@writefile{toc}{\contentsline {chapter}{\numberline {3}Evidence for dark energy \& Alternative interpretations of accelerated expansion}{33}{chapter.3}}
\@writefile{lof}{\addvspace {10\p@ }}
\@writefile{lot}{\addvspace {10\p@ }}
\newlabel{cha:evidences}{{3}{33}{Evidence for dark energy \& Alternative interpretations of accelerated expansion}{chapter.3}{}}
\@writefile{toc}{\contentsline {section}{\numberline {3.1}Cosmological evidence for dark energy}{33}{section.3.1}}
\@writefile{toc}{\contentsline {subsection}{\numberline {3.1.1}The LCDM Model \& Type Ia Supernovae (SNIa)}{33}{subsection.3.1.1}}
\newlabel{FRW_metric}{{\relax 3.1}{33}{The LCDM Model \& Type Ia Supernovae (SNIa)}{equation.3.1.1}{}}
\newlabel{EMT}{{\relax 3.2}{33}{The LCDM Model \& Type Ia Supernovae (SNIa)}{equation.3.1.2}{}}
\citation{Bean}
\newlabel{Friedman_1}{{\relax 3.4}{34}{The LCDM Model \& Type Ia Supernovae (SNIa)}{equation.3.1.4}{}}
\newlabel{redshift}{{\relax 3.6}{34}{The LCDM Model \& Type Ia Supernovae (SNIa)}{equation.3.1.6}{}}
\newlabel{distance}{{\relax 3.7}{34}{The LCDM Model \& Type Ia Supernovae (SNIa)}{equation.3.1.6}{}}
\newlabel{expansion_a}{{\relax 3.8}{34}{The LCDM Model \& Type Ia Supernovae (SNIa)}{equation.3.1.8}{}}
\citation{Hubble168}
\citation{Patrignani:2016xqp}
\citation{Hubble168}
\citation{Hubble168}
\@writefile{lof}{\contentsline {figure}{\numberline {\relax 3.1}{\ignorespaces \relax \fontsize  {10}{12}\selectfont  \abovedisplayskip 10\p@ plus2\p@ minus5\p@ \abovedisplayshortskip \z@ plus3\p@ \belowdisplayshortskip 6\p@ plus3\p@ minus3\p@ \def \leftmargin \leftmargini \parsep 4.5\p@ plus2\p@ minus\p@ \topsep 9\p@ plus3\p@ minus5\p@ \itemsep 4.5\p@ plus2\p@ minus\p@ {\leftmargin \leftmargini \topsep 6\p@ plus2\p@ minus2\p@ \parsep 3\p@ plus2\p@ minus\p@ \itemsep \parsep }\belowdisplayskip \abovedisplayskip \add@extra@listi {sml}Copied from \cite  {Hubble168}. Original caption: Velocity-Distance Relation among Extra-Galactic Nebulae. Radial velocities, corrected for solar motion, are plotted against distances estimated from involved stars and mean luminosities of nebulae in a cluster. The black discs and full line represent the solution for solar motion using the nebulae individually; the circles and broken line represent the solution combining the nebulae into groups; the cross represents the mean velocity corresponding to the mean distance of 22 nebulae whose distances could not be estimated individually.}}{35}{figure.3.1}}
\newlabel{hubble_law}{{\relax 3.1}{35}{\small Copied from \cite {Hubble168}. Original caption: Velocity-Distance Relation among Extra-Galactic Nebulae. Radial velocities, corrected for solar motion, are plotted against distances estimated from involved stars and mean luminosities of nebulae in a cluster. The black discs and full line represent the solution for solar motion using the nebulae individually; the circles and broken line represent the solution combining the nebulae into groups; the cross represents the mean velocity corresponding to the mean distance of 22 nebulae whose distances could not be estimated individually}{figure.3.1}{}}
\newlabel{Mminusm}{{\relax 3.11}{36}{The LCDM Model \& Type Ia Supernovae (SNIa)}{equation.3.1.11}{}}
\citation{Phillips:1993ng}
\citation{Phillips:1993ng}
\citation{Phillips:1993ng}
\citation{Perlmutter:2003rr}
\citation{Perlmutter:2003rr}
\@writefile{lof}{\contentsline {figure}{\numberline {\relax 3.2}{\ignorespaces  \relax \fontsize  {10}{12}\selectfont  \abovedisplayskip 10\p@ plus2\p@ minus5\p@ \abovedisplayshortskip \z@ plus3\p@ \belowdisplayshortskip 6\p@ plus3\p@ minus3\p@ \def \leftmargin \leftmargini \parsep 4.5\p@ plus2\p@ minus\p@ \topsep 9\p@ plus3\p@ minus5\p@ \itemsep 4.5\p@ plus2\p@ minus\p@ {\leftmargin \leftmargini \topsep 6\p@ plus2\p@ minus2\p@ \parsep 3\p@ plus2\p@ minus\p@ \itemsep \parsep }\belowdisplayskip \abovedisplayskip \add@extra@listi {sml}Copied from \cite  {Phillips:1993ng}. Original caption: Decline rate-peak luminosity for the nine best observed SN Ia's. Absolute magnitudes in B, V and I are plotted vs $\Delta m_{15}(B)$, which measures the amount of magnitudes that the B light curve drops during the first 15 days following maximum.}}{38}{figure.3.2}}
\newlabel{phillips}{{\relax 3.2}{38}{\small Copied from \cite {Phillips:1993ng}. Original caption: Decline rate-peak luminosity for the nine best observed SN Ia's. Absolute magnitudes in B, V and I are plotted vs $\Delta m_{15}(B)$, which measures the amount of magnitudes that the B light curve drops during the first 15 days following maximum}{figure.3.2}{}}
\citation{Bean}
\citation{Bean}
\@writefile{lof}{\contentsline {figure}{\numberline {\relax 3.3}{\ignorespaces \relax \fontsize  {10}{12}\selectfont  \abovedisplayskip 10\p@ plus2\p@ minus5\p@ \abovedisplayshortskip \z@ plus3\p@ \belowdisplayshortskip 6\p@ plus3\p@ minus3\p@ \def \leftmargin \leftmargini \parsep 4.5\p@ plus2\p@ minus\p@ \topsep 9\p@ plus3\p@ minus5\p@ \itemsep 4.5\p@ plus2\p@ minus\p@ {\leftmargin \leftmargini \topsep 6\p@ plus2\p@ minus2\p@ \parsep 3\p@ plus2\p@ minus\p@ \itemsep \parsep }\belowdisplayskip \abovedisplayskip \add@extra@listi {sml}Sketch of the light curve in the blue band of the spectrum. The luminosity around the peak is predominantly determined by the decay of ${}^{56}\text  {Ni}$, while the luminosity along the tail is predominantly determined by the decay ${}^{56}\text  {Co}$.}}{39}{figure.3.3}}
\newlabel{light_curve}{{\relax 3.3}{39}{\small Sketch of the light curve in the blue band of the spectrum. The luminosity around the peak is predominantly determined by the decay of ${}^{56}\text {Ni}$, while the luminosity along the tail is predominantly determined by the decay ${}^{56}\text {Co}$}{figure.3.3}{}}
\newlabel{snia_fit}{{\relax 3.13}{39}{The LCDM Model \& Type Ia Supernovae (SNIa)}{equation.3.1.13}{}}
\@writefile{toc}{\contentsline {subsection}{\numberline {3.1.2}The Cosmic Microwave Background (CMB)}{39}{subsection.3.1.2}}
\@writefile{lof}{\contentsline {figure}{\numberline {\relax 3.4}{\ignorespaces \relax \fontsize  {10}{12}\selectfont  \abovedisplayskip 10\p@ plus2\p@ minus5\p@ \abovedisplayshortskip \z@ plus3\p@ \belowdisplayshortskip 6\p@ plus3\p@ minus3\p@ \def \leftmargin \leftmargini \parsep 4.5\p@ plus2\p@ minus\p@ \topsep 9\p@ plus3\p@ minus5\p@ \itemsep 4.5\p@ plus2\p@ minus\p@ {\leftmargin \leftmargini \topsep 6\p@ plus2\p@ minus2\p@ \parsep 3\p@ plus2\p@ minus\p@ \itemsep \parsep }\belowdisplayskip \abovedisplayskip \add@extra@listi {sml}Copied from \cite  {Perlmutter:2003rr}. Measurements of the observed magnitude and the redshift of various SNIa's. The solid blue line shows the best regarding the $\Lambda $CDM model with dark energy.}}{40}{figure.3.4}}
\newlabel{perlmutter}{{\relax 3.4}{40}{\small Copied from \cite {Perlmutter:2003rr}. Measurements of the observed magnitude and the redshift of various SNIa's. The solid blue line shows the best regarding the $\Lambda $CDM model with dark energy}{figure.3.4}{}}
\@writefile{lof}{\contentsline {figure}{\numberline {\relax 3.5}{\ignorespaces \relax \fontsize  {10}{12}\selectfont  \abovedisplayskip 10\p@ plus2\p@ minus5\p@ \abovedisplayshortskip \z@ plus3\p@ \belowdisplayshortskip 6\p@ plus3\p@ minus3\p@ \def \leftmargin \leftmargini \parsep 4.5\p@ plus2\p@ minus\p@ \topsep 9\p@ plus3\p@ minus5\p@ \itemsep 4.5\p@ plus2\p@ minus\p@ {\leftmargin \leftmargini \topsep 6\p@ plus2\p@ minus2\p@ \parsep 3\p@ plus2\p@ minus\p@ \itemsep \parsep }\belowdisplayskip \abovedisplayskip \add@extra@listi {sml}Sketch of the relation between the sound horizon $r_s$ and the angle $\vartheta $ under which the inhomogeneities of the CMB are observed. The exact value of $\vartheta $ depends on the geometry of the universe and is smaller for a negatively curved universe (blue line, $k=-1$) and larger for a positively curved universe (red line, $k=+1$).}}{41}{figure.3.5}}
\newlabel{rs_angle}{{\relax 3.5}{41}{\small Sketch of the relation between the sound horizon $r_s$ and the angle $\vartheta $ under which the inhomogeneities of the CMB are observed. The exact value of $\vartheta $ depends on the geometry of the universe and is smaller for a negatively curved universe (blue line, $k=-1$) and larger for a positively curved universe (red line, $k=+1$)}{figure.3.5}{}}
\citation{Nielsen:2015pga}
\citation{Csaki:2001yk}
\citation{Colin,Lin:2016jqp}
\citation{Hunt:2008wp,Pandey:2015htc}
\citation{Enqvist:2007vb}
\@writefile{toc}{\contentsline {subsection}{\numberline {3.1.3}Criticism and open questions}{42}{subsection.3.1.3}}
\@writefile{toc}{\contentsline {section}{\numberline {3.2}Alternative explanations for accelerated expansion}{42}{section.3.2}}
\@writefile{toc}{\contentsline {subsection}{\numberline {3.2.1}Lema\^{\i }tre-Tolman-Bondi models}{42}{subsection.3.2.1}}
\newlabel{LTB_metric}{{\relax 3.20}{43}{Lema\^{\i }tre-Tolman-Bondi models}{equation.3.2.20}{}}
\newlabel{eq:evo1}{{\relax 3.21}{43}{Lema\^{\i }tre-Tolman-Bondi models}{equation.3.2.21}{}}
\newlabel{eq:evo2}{{\relax 3.22}{43}{Lema\^{\i }tre-Tolman-Bondi models}{equation.3.2.21}{}}
\newlabel{F_def}{{\relax 3.24}{44}{Lema\^{\i }tre-Tolman-Bondi models}{equation.3.2.24}{}}
\newlabel{evo1_friedman}{{\relax 3.27}{44}{Lema\^{\i }tre-Tolman-Bondi models}{equation.3.2.27}{}}
\newlabel{evo2_friedman}{{\relax 3.28}{44}{Lema\^{\i }tre-Tolman-Bondi models}{equation.3.2.28}{}}
\citation{Enqvist:2007vb}
\newlabel{dL_gen}{{\relax 3.32}{45}{Lema\^{\i }tre-Tolman-Bondi models}{equation.3.2.32}{}}
\newlabel{geodesic}{{\relax 3.33}{45}{Lema\^{\i }tre-Tolman-Bondi models}{equation.3.2.33}{}}
\citation{Alnes:2005rw}
\newlabel{lr1}{{\relax 3.34}{46}{Lema\^{\i }tre-Tolman-Bondi models}{equation.3.2.34}{}}
\newlabel{redshift1}{{\relax 3.35}{46}{Lema\^{\i }tre-Tolman-Bondi models}{equation.3.2.34}{}}
\newlabel{redshift2}{{\relax 3.36}{46}{Lema\^{\i }tre-Tolman-Bondi models}{equation.3.2.34}{}}
\@writefile{lof}{\contentsline {figure}{\numberline {\relax 3.6}{\ignorespaces \relax \fontsize  {10}{12}\selectfont  \abovedisplayskip 10\p@ plus2\p@ minus5\p@ \abovedisplayshortskip \z@ plus3\p@ \belowdisplayshortskip 6\p@ plus3\p@ minus3\p@ \def \leftmargin \leftmargini \parsep 4.5\p@ plus2\p@ minus\p@ \topsep 9\p@ plus3\p@ minus5\p@ \itemsep 4.5\p@ plus2\p@ minus\p@ {\leftmargin \leftmargini \topsep 6\p@ plus2\p@ minus2\p@ \parsep 3\p@ plus2\p@ minus\p@ \itemsep \parsep }\belowdisplayskip \abovedisplayskip \add@extra@listi {sml}Sketch of the universe as proposed by Annes et. al. In this model, the earth is located near the center of an underdense bubble, with a metric that becomes 'FRW-like' for large distances from the center.}}{47}{figure.3.6}}
\newlabel{fig_annes}{{\relax 3.6}{47}{\small Sketch of the universe as proposed by Annes et. al. In this model, the earth is located near the center of an underdense bubble, with a metric that becomes 'FRW-like' for large distances from the center}{figure.3.6}{}}
\citation{Alnes:2005rw}
\citation{Alnes:2005rw}
\citation{Marra:2007pm}
\@writefile{lof}{\contentsline {figure}{\numberline {\relax 3.7}{\ignorespaces Copied from \cite  {Alnes:2005rw}. Original caption: Distance modulus vs. redshift for our standard model together with supernova observations}}{48}{figure.3.7}}
\newlabel{alnes_fit}{{\relax 3.7}{48}{Copied from \cite {Alnes:2005rw}. Original caption: Distance modulus vs. redshift for our standard model together with supernova observations}{figure.3.7}{}}
\citation{Csaki:2001yk}
\@writefile{lof}{\contentsline {figure}{\numberline {\relax 3.8}{\ignorespaces \relax \fontsize  {10}{12}\selectfont  \abovedisplayskip 10\p@ plus2\p@ minus5\p@ \abovedisplayshortskip \z@ plus3\p@ \belowdisplayshortskip 6\p@ plus3\p@ minus3\p@ \def \leftmargin \leftmargini \parsep 4.5\p@ plus2\p@ minus\p@ \topsep 9\p@ plus3\p@ minus5\p@ \itemsep 4.5\p@ plus2\p@ minus\p@ {\leftmargin \leftmargini \topsep 6\p@ plus2\p@ minus2\p@ \parsep 3\p@ plus2\p@ minus\p@ \itemsep \parsep }\belowdisplayskip \abovedisplayskip \add@extra@listi {sml}Sketch of the 'Swiss-cheese universe' as proposed by Marra et. al. In this model, the universe consists of a 'FRW-like' background (the cheese) and several holes that are described in the LTB framework.}}{49}{figure.3.8}}
\newlabel{marra_sketch}{{\relax 3.8}{49}{\small Sketch of the 'Swiss-cheese universe' as proposed by Marra et. al. In this model, the universe consists of a 'FRW-like' background (the cheese) and several holes that are described in the LTB framework}{figure.3.8}{}}
\@writefile{toc}{\contentsline {subsection}{\numberline {3.2.2}Axion-Photon conversion}{49}{subsection.3.2.2}}
\citation{Csaki:2001yk}
\@writefile{lof}{\contentsline {figure}{\numberline {\relax 3.9}{\ignorespaces \relax \fontsize  {10}{12}\selectfont  \abovedisplayskip 10\p@ plus2\p@ minus5\p@ \abovedisplayshortskip \z@ plus3\p@ \belowdisplayshortskip 6\p@ plus3\p@ minus3\p@ \def \leftmargin \leftmargini \parsep 4.5\p@ plus2\p@ minus\p@ \topsep 9\p@ plus3\p@ minus5\p@ \itemsep 4.5\p@ plus2\p@ minus\p@ {\leftmargin \leftmargini \topsep 6\p@ plus2\p@ minus2\p@ \parsep 3\p@ plus2\p@ minus\p@ \itemsep \parsep }\belowdisplayskip \abovedisplayskip \add@extra@listi {sml}Feynman diagrams for the decay $a \rightarrow \gamma \gamma $ (left) as well as for the conversion of an axion into a photon in the presence of an external electromagnetic field (right).}}{50}{figure.3.9}}
\newlabel{ag_diagram}{{\relax 3.9}{50}{\small Feynman diagrams for the decay $a \rightarrow \gamma \gamma $ (left) as well as for the conversion of an axion into a photon in the presence of an external electromagnetic field (right)}{figure.3.9}{}}
\citation{Csaki:2001yk}
\citation{Csaki:2001yk}
\citation{Csaki:2001yk}
\@writefile{toc}{\contentsline {section}{\numberline {3.3}Conclusion}{51}{section.3.3}}
\@writefile{lof}{\contentsline {figure}{\numberline {\relax 3.10}{\ignorespaces \relax \fontsize  {10}{12}\selectfont  \abovedisplayskip 10\p@ plus2\p@ minus5\p@ \abovedisplayshortskip \z@ plus3\p@ \belowdisplayshortskip 6\p@ plus3\p@ minus3\p@ \def \leftmargin \leftmargini \parsep 4.5\p@ plus2\p@ minus\p@ \topsep 9\p@ plus3\p@ minus5\p@ \itemsep 4.5\p@ plus2\p@ minus\p@ {\leftmargin \leftmargini \topsep 6\p@ plus2\p@ minus2\p@ \parsep 3\p@ plus2\p@ minus\p@ \itemsep \parsep }\belowdisplayskip \abovedisplayskip \add@extra@listi {sml}Copied from \cite  {Csaki:2001yk}. Original caption: The luminosity-distance vs. redshift curve for several models, relative to the curve with $\Omega _{tot} = 0$ (dotted horizontal line). The dashed curve is a best fit to the supernova data assuming the Universe is accelerating $\Omega _m = 0.4,\tmspace  +\thickmuskip {.2777em}\Omega _\Lambda =0.7$; the solid line is the oscillation model with $\Omega _m = 0.3,\tmspace  +\thickmuskip {.2777em}\Omega _S = 0.7,\tmspace  +\thickmuskip {.2777em}M = 4\cdot 10^{11}\tmspace  +\thickmuskip {.2777em}\mathrm  {GeV},\tmspace  +\thickmuskip {.2777em}m = 10^{-16}\tmspace  +\thickmuskip {.2777em}\mathrm  {eV}$; the dot-dashed line is $\Omega _m = 0.3,\tmspace  +\thickmuskip {.2777em}\Omega _S = 0.7$ with no oscillations, and the dot-dot-dashed line is for $\Omega _m = 1$ again with no oscillations.}}{52}{figure.3.10}}
\newlabel{csaki}{{\relax 3.10}{52}{\small Copied from \cite {Csaki:2001yk}. Original caption: The luminosity-distance vs. redshift curve for several models, relative to the curve with $\Omega _{tot} = 0$ (dotted horizontal line). The dashed curve is a best fit to the supernova data assuming the Universe is accelerating $\Omega _m = 0.4,\;\Omega _\Lambda =0.7$; the solid line is the oscillation model with $\Omega _m = 0.3,\;\Omega _S = 0.7,\;M = 4\cdot 10^{11}\;\mathrm {GeV},\;m = 10^{-16}\;\mathrm {eV}$; the dot-dashed line is $\Omega _m = 0.3,\;\Omega _S = 0.7$ with no oscillations, and the dot-dot-dashed line is for $\Omega _m = 1$ again with no oscillations}{figure.3.10}{}}
\@setckpt{Main/03Vacuum_Energy}{
\setcounter{page}{53}
\setcounter{equation}{50}
\setcounter{enumi}{2}
\setcounter{enumii}{0}
\setcounter{enumiii}{0}
\setcounter{enumiv}{0}
\setcounter{footnote}{1}
\setcounter{mpfootnote}{0}
\setcounter{part}{0}
\setcounter{chapter}{3}
\setcounter{section}{3}
\setcounter{subsection}{0}
\setcounter{subsubsection}{0}
\setcounter{paragraph}{0}
\setcounter{subparagraph}{0}
\setcounter{figure}{10}
\setcounter{table}{0}
\setcounter{blindtext}{1}
\setcounter{Blindtext}{5}
\setcounter{blind@countparstart}{0}
\setcounter{blindlist}{0}
\setcounter{blindlistlevel}{0}
\setcounter{blindlist@level}{0}
\setcounter{blind@listcount}{0}
\setcounter{blind@levelcount}{0}
\setcounter{blind@randomcount}{0}
\setcounter{blind@randommax}{0}
\setcounter{blind@pangramcount}{0}
\setcounter{blind@pangrammax}{0}
\setcounter{parentequation}{0}
\setcounter{Item}{9}
\setcounter{Hfootnote}{19}
\setcounter{bookmark@seq@number}{24}
\setcounter{fmfgraph}{1}
\setcounter{section@level}{1}
}
