\relax 
\providecommand\hyper@newdestlabel[2]{}
\citation{ArkaniHamed:2002fu}
\citation{Csaki:2000dm}
\citation{Polchinski:1996na,Lukas:1998yy,Rubakov:2001kp}
\@writefile{toc}{\contentsline {chapter}{\numberline {4}Self-tuning from extra dimensions}{53}{chapter.4}}
\@writefile{lof}{\addvspace {10\p@ }}
\@writefile{lot}{\addvspace {10\p@ }}
\newlabel{cha:selftuningED}{{4}{53}{Self-tuning from extra dimensions}{chapter.4}{}}
\@writefile{toc}{\contentsline {section}{\numberline {4.1}Extra dimensional model}{53}{section.4.1}}
\newlabel{eq:STfXD.canonicalaction}{{\relax 4.1}{53}{Extra dimensional model}{equation.4.1.1}{}}
\newlabel{eq:STfXD.poincaremetrixansatz}{{\relax 4.4}{54}{Extra dimensional model}{equation.4.1.4}{}}
\newlabel{eq:STfXD.bulkEOM}{{\relax 4.6}{54}{Extra dimensional model}{equation.4.1.6}{}}
\newlabel{eq:STfXD.matchingconditions}{{\relax 4.7}{54}{Extra dimensional model}{equation.4.1.7}{}}
\newlabel{eq:STfXD.solutions}{{\relax 4.8}{54}{Extra dimensional model}{equation.4.1.8}{}}
\citation{deBoer:1999tgo,Verlinde:1999xm}
\@writefile{lof}{\contentsline {figure}{\numberline {\relax 4.1}{\ignorespaces Two possible behaviours of the field $\phi (y)$ and the scale factor $a(y)$, for positive and negative $V_{ext}$.}}{56}{figure.4.1}}
\newlabel{fig:STfXD.singularity}{{\relax 4.1}{56}{Two possible behaviours of the field $\phi (y)$ and the scale factor $a(y)$, for positive and negative $V_{ext}$}{figure.4.1}{}}
\@writefile{toc}{\contentsline {section}{\numberline {4.2}Self-tuning with black holes}{56}{section.4.2}}
\citation{Barcelo:2000re}
\citation{Csaki:2000dm}
\newlabel{STfXD.innerouterhorizoncondition}{{\relax 4.16}{57}{Self-tuning with black holes}{equation.4.2.16}{}}
\newlabel{STfXD.jumpequations}{{\relax 4.17}{57}{Self-tuning with black holes}{equation.4.2.17}{}}
\newlabel{STfXD.rhofornocharge}{{\relax 4.19}{57}{Self-tuning with black holes}{equation.4.2.19}{}}
\newlabel{STfXD.jumpequationsQ}{{\relax 4.20}{58}{Self-tuning with black holes}{equation.4.2.20}{}}
\newlabel{STfXD.massandchargeblackhole}{{\relax 4.21}{58}{Self-tuning with black holes}{equation.4.2.21}{}}
\newlabel{STfXD.criticalenergydensityBHQ}{{\relax 4.22}{58}{Self-tuning with black holes}{equation.4.2.22}{}}
\citation{Kaelbermann:1998hu,Kaelbermann:1999jw,Chung:1999xg,Ishihara:2000nf,Chung:2000ji,Kraus:1999it,Youm:2000ax,Hashimoto:2000ys,Libanov:2005nv}
\@writefile{lof}{\contentsline {figure}{\numberline {\relax 4.2}{\ignorespaces Allowed regions for $\omega $ and $\rho $ which give a solution where the $r=0$ singularity is hidden behind horizons. The regions for $\omega >0$ are cut off by requiring that the horizons sit between the $r=0$ and the brane position at $r=r_0$.}}{59}{figure.4.2}}
\newlabel{fig:STfXD.phasediagbrane}{{\relax 4.2}{59}{Allowed regions for $\omega $ and $\rho $ which give a solution where the $r=0$ singularity is hidden behind horizons. The regions for $\omega >0$ are cut off by requiring that the horizons sit between the $r=0$ and the brane position at $r=r_0$}{figure.4.2}{}}
\@setckpt{Main/04vacuum_WS_Marc}{
\setcounter{page}{61}
\setcounter{equation}{28}
\setcounter{enumi}{2}
\setcounter{enumii}{0}
\setcounter{enumiii}{0}
\setcounter{enumiv}{0}
\setcounter{footnote}{0}
\setcounter{mpfootnote}{0}
\setcounter{part}{0}
\setcounter{chapter}{4}
\setcounter{section}{2}
\setcounter{subsection}{0}
\setcounter{subsubsection}{0}
\setcounter{paragraph}{0}
\setcounter{subparagraph}{0}
\setcounter{figure}{2}
\setcounter{table}{0}
\setcounter{blindtext}{1}
\setcounter{Blindtext}{5}
\setcounter{blind@countparstart}{0}
\setcounter{blindlist}{0}
\setcounter{blindlistlevel}{0}
\setcounter{blindlist@level}{0}
\setcounter{blind@listcount}{0}
\setcounter{blind@levelcount}{0}
\setcounter{blind@randomcount}{0}
\setcounter{blind@randommax}{0}
\setcounter{blind@pangramcount}{0}
\setcounter{blind@pangrammax}{0}
\setcounter{parentequation}{0}
\setcounter{Item}{9}
\setcounter{Hfootnote}{19}
\setcounter{bookmark@seq@number}{27}
\setcounter{fmfgraph}{1}
\setcounter{section@level}{1}
}
