\relax 
\providecommand\hyper@newdestlabel[2]{}
\citation{Kaloper:2013zca,Kaloper:2014dqa}
\citation{Weinberg:1988cp}
\citation{Padilla:2015aaa}
\@writefile{toc}{\contentsline {chapter}{\numberline {5}Sequestering mechanism}{61}{chapter.5}}
\@writefile{lof}{\addvspace {10\p@ }}
\@writefile{lot}{\addvspace {10\p@ }}
\newlabel{cha:sequestering}{{5}{61}{Sequestering mechanism}{chapter.5}{}}
\@writefile{toc}{\contentsline {section}{\numberline {5.1}Motivation}{61}{section.5.1}}
\citation{Tseytlin:1990hn}
\citation{Kaloper:2013zca,Kaloper:2014dqa}
\citation{Padilla:2015aaa}
\@writefile{toc}{\contentsline {section}{\numberline {5.2}Setting up the global sequestering mechanism}{62}{section.5.2}}
\@writefile{toc}{\contentsline {paragraph}{\nonumberline The Action.}{62}{section*.16}}
\newlabel{seq1}{{\relax 5.2}{62}{The Action}{equation.5.2.2}{}}
\citation{Kaloper:2014dqa}
