\relax 
\providecommand\hyper@newdestlabel[2]{}
\citation{Abbott:1984qf}
\citation{Brown:1987dd}
\citation{Brown:1988kg}
\citation{Agashe:2014kda}
\citation{Kallosh:2002gg}
\citation{Weinberg:1987dv}
\citation{Vilenkin:1983xq}
\citation{Bousso:2007gp}
\@writefile{toc}{\contentsline {chapter}{\numberline {1}Cosmological relaxation \`a la Abbott and Brown-Teitelboim}{1}{chapter.1}}
\@writefile{lof}{\addvspace {10\p@ }}
\@writefile{lot}{\addvspace {10\p@ }}
\newlabel{cha:Abbott}{{1}{1}{Cosmological relaxation \`a la Abbott and Brown-Teitelboim}{chapter.1}{}}
\@writefile{toc}{\contentsline {section}{\numberline {1.1}The idea: a stepwise adjustment of the Cosmological Constant}{1}{section.1.1}}
\newlabel{weinberg_window}{{\relax 1.1}{1}{The idea: a stepwise adjustment of the Cosmological Constant}{equation.1.1.1}{}}
\newlabel{step-size_condition_gen}{{\relax 1.2}{1}{The idea: a stepwise adjustment of the Cosmological Constant}{equation.1.1.2}{}}
\citation{Abbott:1984qf}
\citation{Peccei:1977hh}
\@writefile{lof}{\contentsline {figure}{\numberline {\relax 1.1}{\ignorespaces Dynamical adjustment of the CC to a value compatible with the existence of observers.}}{2}{figure.1.1}}
\newlabel{weinberg_window_CCadjustment}{{\relax 1.1}{2}{Dynamical adjustment of the CC to a value compatible with the existence of observers}{figure.1.1}{}}
\@writefile{toc}{\contentsline {section}{\numberline {1.2}The Abbott mechanism}{2}{section.1.2}}
\@writefile{toc}{\contentsline {subsection}{\numberline {1.2.1}Framework}{2}{subsection.1.2.1}}
\newlabel{shift_sym}{{\relax 1.3}{2}{Framework}{equation.1.2.3}{}}
\newlabel{second_sym}{{\relax 1.6}{3}{Framework}{equation.1.2.6}{}}
\newlabel{second_sym_2}{{\relax 1.7}{3}{Framework}{equation.1.2.7}{}}
\@writefile{toc}{\contentsline {subsection}{\numberline {1.2.2}Condition on the step-size}{3}{subsection.1.2.2}}
\citation{Coleman:1980aw}
\@writefile{lof}{\contentsline {figure}{\numberline {\relax 1.2}{\ignorespaces Dynamical adjustment of the CC to a value compatible with the existence of observers.}}{4}{figure.1.2}}
\newlabel{abbott_potential}{{\relax 1.2}{4}{Dynamical adjustment of the CC to a value compatible with the existence of observers}{figure.1.2}{}}
\@writefile{toc}{\contentsline {subsection}{\numberline {1.2.3}Dynamic: The descent of the potential}{4}{subsection.1.2.3}}
\citation{Brown:1987dd}
\citation{Brown:1988kg}
\citation{Bousso:2007gp}
\citation{Brown:1988kg}
\@writefile{toc}{\contentsline {section}{\numberline {1.3}The Brown and Teitelboim mechanism}{5}{section.1.3}}
\@writefile{toc}{\contentsline {subsection}{\numberline {1.3.1}The Schwinger process in (1+1)-D}{5}{subsection.1.3.1}}
\@writefile{lof}{\contentsline {figure}{\numberline {\relax 1.3}{\ignorespaces A $e^{-}/e^{+}$ pair tunnels out of the vacuum inside two oppositely charged, parallel and infinite plates. After the pair creation, the electric field is decreased by one unit of charge.}}{6}{figure.1.3}}
\newlabel{schwinger_process}{{\relax 1.3}{6}{A $e^{-}/e^{+}$ pair tunnels out of the vacuum inside two oppositely charged, parallel and infinite plates. After the pair creation, the electric field is decreased by one unit of charge}{figure.1.3}{}}
\@writefile{lof}{\contentsline {figure}{\numberline {\relax 1.4}{\ignorespaces Instantaneous picture ($t$ fixed) of the Schwinger process in $(1+1)$-D. After the pair creation, the electric field inside the pair $E_{i}$ is decreased by one unit compared to the electric field outside $E_{0}$.}}{6}{figure.1.4}}
\newlabel{schwinger_process_1D}{{\relax 1.4}{6}{Instantaneous picture ($t$ fixed) of the Schwinger process in $(1+1)$-D. After the pair creation, the electric field inside the pair $E_{i}$ is decreased by one unit compared to the electric field outside $E_{0}$}{figure.1.4}{}}
\@writefile{toc}{\contentsline {subsection}{\numberline {1.3.2}From the (1+1)-D Schwinger process to the BT mechanism}{7}{subsection.1.3.2}}
\citation{Bousso:2000xa}
\@writefile{toc}{\contentsline {subsection}{\numberline {1.3.3}Ability to solve the CC problem}{8}{subsection.1.3.3}}
\newlabel{upper_bound_q_1flux}{{\relax 1.33}{8}{Ability to solve the CC problem}{equation.1.3.33}{}}
\citation{Brown:1987dd}
\citation{Brown:1988kg}
\citation{Bousso:2000xa}
\@writefile{toc}{\contentsline {section}{\numberline {1.4}Bousso-Polchinski approach}{9}{section.1.4}}
\@writefile{toc}{\contentsline {subsection}{\numberline {1.4.1}Multiple 4-form fields}{9}{subsection.1.4.1}}
\newlabel{definition_ni}{{\relax 1.35}{9}{Multiple 4-form fields}{equation.1.4.35}{}}
\newlabel{ww_radius}{{\relax 1.39}{9}{Multiple 4-form fields}{equation.1.4.39}{}}
\citation{Bousso:2000xa}
\newlabel{ww_thickness}{{\relax 1.40}{10}{Multiple 4-form fields}{equation.1.4.40}{}}
\newlabel{weinberg_window_shell_grid_inequality}{{\relax 1.43}{10}{Multiple 4-form fields}{equation.1.4.43}{}}
\@writefile{toc}{\contentsline {subsection}{\numberline {1.4.2}Step-Size Problem treatment}{10}{subsection.1.4.2}}
\newlabel{upper_bound_q_Jfluxes}{{\relax 1.44}{10}{Step-Size Problem treatment}{equation.1.4.44}{}}
\newlabel{q_upper_bound}{{\relax 1.46}{10}{Step-Size Problem treatment}{equation.1.4.46}{}}
\@writefile{lof}{\contentsline {figure}{\numberline {\relax 1.5}{\ignorespaces Each set of integers $\{n_{i}\}$ can be visualized as a point of a $J$-dimensional grid. The configuration $\{n_{i}\}$ corresponds to a vacuum energy inside the Weinberg window if the point sits inside the Weinberg shell.}}{11}{figure.1.5}}
\newlabel{Jdim_grid_ww}{{\relax 1.5}{11}{Each set of integers $\{n_{i}\}$ can be visualized as a point of a $J$-dimensional grid. The configuration $\{n_{i}\}$ corresponds to a vacuum energy inside the Weinberg window if the point sits inside the Weinberg shell}{figure.1.5}{}}
\@writefile{lof}{\contentsline {figure}{\numberline {\relax 1.6}{\ignorespaces Maximum values of the $2$-brane charge $q$ for having a least one configuration of fluxes $\{n_{i}\}$ which gives a vacuum energy inside the Weinberg window $\Delta \Lambda < 10^{-120}$.}}{12}{figure.1.6}}
\newlabel{plot_upper_bound_q_vs_J}{{\relax 1.6}{12}{Maximum values of the $2$-brane charge $q$ for having a least one configuration of fluxes $\{n_{i}\}$ which gives a vacuum energy inside the Weinberg window $\Delta \Lambda < 10^{-120}$}{figure.1.6}{}}
\citation{Guth:1982pn}
\newlabel{ww_inequality_surface_term}{{\relax 1.47}{13}{Step-Size Problem treatment}{equation.1.4.47}{}}
\@writefile{toc}{\contentsline {subsection}{\numberline {1.4.3}Membrane nucleations naturally lead to a multiverse}{13}{subsection.1.4.3}}
\@writefile{lof}{\contentsline {figure}{\numberline {\relax 1.7}{\ignorespaces Cascades of bubbles.}}{13}{figure.1.7}}
\newlabel{bubble_cascade}{{\relax 1.7}{13}{Cascades of bubbles}{figure.1.7}{}}
\@writefile{toc}{\contentsline {subsection}{\numberline {1.4.4}Empty Universe Problem treatment}{14}{subsection.1.4.4}}
\newlabel{inequality_delta_phi}{{\relax 1.51}{14}{Empty Universe Problem treatment}{equation.1.4.51}{}}
\citation{Baumann:2009ds}
\@writefile{lof}{\contentsline {figure}{\numberline {\relax 1.8}{\ignorespaces Inflation potential.}}{15}{figure.1.8}}
\newlabel{inflation_potential}{{\relax 1.8}{15}{Inflation potential}{figure.1.8}{}}
\newlabel{equality_delta_phi}{{\relax 1.53}{15}{Empty Universe Problem treatment}{equation.1.4.53}{}}
\citation{Bousso:2000xa}
\citation{Feng:2000if}
\citation{Coleman:1980aw}
\@writefile{toc}{\contentsline {section}{\numberline {1.5}Conclusion}{16}{section.1.5}}
\@setckpt{Main/09AbbottBrownTeitelBoim}{
\setcounter{page}{17}
\setcounter{equation}{58}
\setcounter{enumi}{2}
\setcounter{enumii}{0}
\setcounter{enumiii}{0}
\setcounter{enumiv}{0}
\setcounter{footnote}{3}
\setcounter{mpfootnote}{0}
\setcounter{part}{0}
\setcounter{chapter}{1}
\setcounter{section}{5}
\setcounter{subsection}{0}
\setcounter{subsubsection}{0}
\setcounter{paragraph}{0}
\setcounter{subparagraph}{0}
\setcounter{figure}{8}
\setcounter{table}{0}
\setcounter{blindtext}{1}
\setcounter{Blindtext}{5}
\setcounter{blind@countparstart}{0}
\setcounter{blindlist}{0}
\setcounter{blindlistlevel}{0}
\setcounter{blindlist@level}{0}
\setcounter{blind@listcount}{0}
\setcounter{blind@levelcount}{0}
\setcounter{blind@randomcount}{0}
\setcounter{blind@randommax}{0}
\setcounter{blind@pangramcount}{0}
\setcounter{blind@pangrammax}{0}
\setcounter{parentequation}{0}
\setcounter{Item}{8}
\setcounter{Hfootnote}{3}
\setcounter{bookmark@seq@number}{17}
\setcounter{fmfgraph}{0}
\setcounter{section@level}{1}
}
