\relax 
\providecommand\hyper@newdestlabel[2]{}
\citation{Alberte:2016izw}
\citation{Abbott:1984qf}
\citation{Weinberg:1988cp}
\citation{Alberte:2016izw}
\citation{Alberte:2016izw}
\citation{ArkaniHamed:2003uy}
\citation{Horndeski:1974wa,Deffayet:2011gz}
\citation{Alberte:2016izw}
\citation{ArmendarizPicon:1999rj,ArkaniHamed:2003uy}
\@writefile{toc}{\contentsline {chapter}{\numberline {2}Relaxation of Cosmological Constant via Null Energy Condition Violation}{17}{chapter.2}}
\@writefile{lof}{\addvspace {10\p@ }}
\@writefile{lot}{\addvspace {10\p@ }}
\newlabel{cha:relax_cc_necv}{{2}{17}{Relaxation of Cosmological Constant via Null Energy Condition Violation}{chapter.2}{}}
\@writefile{toc}{\contentsline {section}{\numberline {2.1}Motivation}{17}{section.2.1}}
\newlabel{sec:ov}{{2.1}{17}{Motivation}{section.2.1}{}}
\@writefile{toc}{\contentsline {section}{\numberline {2.2}Preliminaries}{17}{section.2.2}}
\newlabel{sec:ingr}{{2.2}{17}{Preliminaries}{section.2.2}{}}
\@writefile{toc}{\contentsline {subsection}{\numberline {2.2.1}Ghost condensation}{17}{subsection.2.2.1}}
\newlabel{sec:gh_cond}{{2.2.1}{17}{Ghost condensation}{subsection.2.2.1}{}}
\@writefile{toc}{\contentsline {paragraph}{\nonumberline \bm  {$P(X)$} theory.}{17}{section*.2}}
\citation{ArkaniHamed:2003uy}
\newlabel{eq:ghost_attractor}{{\relax 2.4}{18}{\bm {$P(X)$} theory}{equation.2.2.4}{}}
\citation{ArkaniHamed:2003uy}
\citation{ArkaniHamed:2003uy}
\@writefile{toc}{\contentsline {paragraph}{\nonumberline Ghost condensation.}{19}{section*.3}}
\newlabel{eq:ghost_cond}{{\relax 2.7}{19}{Ghost condensation}{equation.2.2.7}{}}
\newlabel{eq:pi_ghost}{{\relax 2.9}{19}{Ghost condensation}{equation.2.2.9}{}}
\citation{Cheung:2007st}
\citation{ostro,Pais:1950za,Woodard:2006nt,Motohashi:2014opa}
\citation{Solomon:2017nlh}
\citation{Solomon:2017nlh}
\newlabel{eq:jeans}{{\relax 2.13}{20}{Ghost condensation}{equation.2.2.13}{}}
\newlabel{eq:ostro_ghost}{{\relax 2.16}{20}{Ghost condensation}{equation.2.2.16}{}}
\citation{ArkaniHamed:2003uz}
\@writefile{toc}{\contentsline {paragraph}{\nonumberline Ghost inflation.}{21}{section*.4}}
\citation{ArkaniHamed:2003uz}
\citation{ArkaniHamed:2003uz}
\newlabel{eq:power_ghost}{{\relax 2.24}{22}{Ghost inflation}{equation.2.2.24}{}}
\newlabel{eq:power_ghost_rough}{{\relax 2.25}{22}{Ghost inflation}{equation.2.2.25}{}}
\citation{ArkaniHamed:2003uz}
\citation{Horndeski:1974wa}
\citation{Deffayet:2011gz}
\citation{Deffayet:2011gz}
\newlabel{eq:nG_ghost}{{\relax 2.26}{23}{Ghost inflation}{equation.2.2.26}{}}
\@writefile{toc}{\contentsline {subsection}{\numberline {2.2.2}Horndeski's theory}{23}{subsection.2.2.2}}
\newlabel{sec:horn}{{2.2.2}{23}{Horndeski's theory}{subsection.2.2.2}{}}
\@writefile{toc}{\contentsline {paragraph}{\nonumberline Horndeski's theory.}{23}{section*.5}}
\newlabel{eq:g4}{{\relax 2.30}{23}{Horndeski's theory}{equation.2.2.30}{}}
\citation{Ohashi:2012wf,Jinno:2013fka,Ema:2015oaa}
\citation{Pirtskhalava:2014esa}
\citation{Creminelli:2006xe,Pirtskhalava:2014esa}
\@writefile{toc}{\contentsline {paragraph}{\nonumberline Fluctuations.}{24}{section*.6}}
\newlabel{eq:rho}{{\relax 2.33}{24}{Fluctuations}{equation.2.2.33}{}}
\newlabel{eq:press}{{\relax 2.34}{24}{Fluctuations}{equation.2.2.34}{}}
\citation{Alberte:2016izw}
\citation{Alberte:2016izw}
\newlabel{eq:horn_cons}{{\relax 2.39}{25}{Fluctuations}{equation.2.2.39}{}}
\@writefile{toc}{\contentsline {section}{\numberline {2.3}Relaxing the CC}{25}{section.2.3}}
\newlabel{sec:relax_cc}{{2.3}{25}{Relaxing the CC}{section.2.3}{}}
\@writefile{toc}{\contentsline {section}{\numberline {2.4}Relaxation}{25}{section.2.4}}
\newlabel{sec:rel}{{2.4}{25}{Relaxation}{section.2.4}{}}
\@writefile{toc}{\contentsline {paragraph}{\nonumberline Ordinary scalar field.}{26}{section*.7}}
\citation{Alberte:2016izw}
\citation{Alberte:2016izw}
\newlabel{eq:slowroll}{{\relax 2.42}{27}{Ordinary scalar field}{equation.2.4.42}{}}
\newlabel{eq:classical}{{\relax 2.43}{27}{Ordinary scalar field}{equation.2.4.43}{}}
\@writefile{lof}{\contentsline {figure}{\numberline {\relax 2.1}{\ignorespaces \relax \fontsize  {10}{12}\selectfont  \abovedisplayskip 10\p@ plus2\p@ minus5\p@ \abovedisplayshortskip \z@ plus3\p@ \belowdisplayshortskip 6\p@ plus3\p@ minus3\p@ \def \leftmargin \leftmargini \parsep 4.5\p@ plus2\p@ minus\p@ \topsep 9\p@ plus3\p@ minus5\p@ \itemsep 4.5\p@ plus2\p@ minus\p@ {\leftmargin \leftmargini \topsep 6\p@ plus2\p@ minus2\p@ \parsep 3\p@ plus2\p@ minus\p@ \itemsep \parsep }\belowdisplayskip \abovedisplayskip \add@extra@listi {sml}Figure taken from \cite  {Alberte:2016izw} in Planck unit. \textbf  {Green shaded}: the two conditions, \textit  {i.e.}, the slow roll and the classical dynamics are fulfilled. \textbf  {Purple solid}: a trajectory for the linear potential $- \lambda _1^3 \phi _1$. \textbf  {Blue solid}: a trajectory for a general potential $V$ that fulfills the two conditions. \textbf  {Red solid}: a trajectory with an order one change of the initial value of $\Lambda _\ast $ from the blue solid line. }}{28}{figure.2.1}}
\newlabel{fig:simple_scalar}{{\relax 2.1}{28}{\small Figure taken from \cite {Alberte:2016izw} in Planck unit. \textbf {Green shaded}: the two conditions, \textit {i.e.}, the slow roll and the classical dynamics are fulfilled. \textbf {Purple solid}: a trajectory for the linear potential $- \lambda _1^3 \phi _1$. \textbf {Blue solid}: a trajectory for a general potential $V$ that fulfills the two conditions. \textbf {Red solid}: a trajectory with an order one change of the initial value of $\Lambda _\ast $ from the blue solid line}{figure.2.1}{}}
\@writefile{toc}{\contentsline {paragraph}{\nonumberline Ghost condensation with shift symmetry breaking.}{29}{section*.8}}
\newlabel{eq:eft1}{{\relax 2.47}{29}{Ghost condensation with shift symmetry breaking}{equation.2.4.47}{}}
\newlabel{eq:eft2}{{\relax 2.51}{30}{Ghost condensation with shift symmetry breaking}{equation.2.4.51}{}}
\newlabel{eq:fluc_ghost_shiftb}{{\relax 2.52}{30}{Ghost condensation with shift symmetry breaking}{equation.2.4.52}{}}
\citation{Alberte:2016izw}
\citation{Alberte:2016izw}
\newlabel{eq:upper_cc_ghost}{{\relax 2.55}{32}{Ghost condensation with shift symmetry breaking}{equation.2.4.55}{}}
\@writefile{toc}{\contentsline {subsection}{\numberline {2.4.1}Phase transition}{32}{subsection.2.4.1}}
\newlabel{sec:pt}{{2.4.1}{32}{Phase transition}{subsection.2.4.1}{}}
\@writefile{toc}{\contentsline {paragraph}{\nonumberline Case 1.}{33}{section*.9}}
\newlabel{eq:cutoff_case1}{{\relax 2.60}{33}{Case 1}{equation.2.4.60}{}}
\@writefile{toc}{\contentsline {paragraph}{\nonumberline Case 2.}{33}{section*.10}}
\newlabel{eq:upper_m2}{{\relax 2.61}{33}{Case 2}{equation.2.4.61}{}}
\citation{Aubourg:2014yra,Ade:2015rim}
\newlabel{eq:fast_necv_case2}{{\relax 2.62}{34}{Case 2}{equation.2.4.62}{}}
\newlabel{eq:upper_cc_case2}{{\relax 2.63}{34}{Case 2}{equation.2.4.63}{}}
\@writefile{toc}{\contentsline {subsection}{\numberline {2.4.2}NEC violation}{34}{subsection.2.4.2}}
\newlabel{sec:necv}{{2.4.2}{34}{NEC violation}{subsection.2.4.2}{}}
\citation{Alberte:2016izw}
\citation{Alberte:2016izw}
\@writefile{toc}{\contentsline {paragraph}{\nonumberline Slow NEC violation by ghost condensation.}{35}{section*.11}}
\@writefile{lof}{\contentsline {figure}{\numberline {\relax 2.2}{\ignorespaces \relax \fontsize  {10}{12}\selectfont  \abovedisplayskip 10\p@ plus2\p@ minus5\p@ \abovedisplayshortskip \z@ plus3\p@ \belowdisplayshortskip 6\p@ plus3\p@ minus3\p@ \def \leftmargin \leftmargini \parsep 4.5\p@ plus2\p@ minus\p@ \topsep 9\p@ plus3\p@ minus5\p@ \itemsep 4.5\p@ plus2\p@ minus\p@ {\leftmargin \leftmargini \topsep 6\p@ plus2\p@ minus2\p@ \parsep 3\p@ plus2\p@ minus\p@ \itemsep \parsep }\belowdisplayskip \abovedisplayskip \add@extra@listi {sml}Figure taken from \cite  {Alberte:2016izw}. }}{36}{figure.2.2}}
\newlabel{fig:potential_necv}{{\relax 2.2}{36}{\small Figure taken from \cite {Alberte:2016izw}}{figure.2.2}{}}
\newlabel{eq:eft1_necv}{{\relax 2.67}{36}{Slow NEC violation by ghost condensation}{equation.2.4.67}{}}
\citation{Hsu:2004vr,Creminelli:2006xe}
\newlabel{eq:eft2_necv}{{\relax 2.69}{37}{Slow NEC violation by ghost condensation}{equation.2.4.69}{}}
\newlabel{eq:ghost_necv_grad}{{\relax 2.72}{37}{Slow NEC violation by ghost condensation}{equation.2.4.72}{}}
\newlabel{eq:slow_necv}{{\relax 2.73}{37}{Slow NEC violation by ghost condensation}{equation.2.4.73}{}}
\citation{Alberte:2016izw}
\citation{Alberte:2016izw}
\@writefile{lof}{\contentsline {figure}{\numberline {\relax 2.3}{\ignorespaces \relax \fontsize  {10}{12}\selectfont  \abovedisplayskip 10\p@ plus2\p@ minus5\p@ \abovedisplayshortskip \z@ plus3\p@ \belowdisplayshortskip 6\p@ plus3\p@ minus3\p@ \def \leftmargin \leftmargini \parsep 4.5\p@ plus2\p@ minus\p@ \topsep 9\p@ plus3\p@ minus5\p@ \itemsep 4.5\p@ plus2\p@ minus\p@ {\leftmargin \leftmargini \topsep 6\p@ plus2\p@ minus2\p@ \parsep 3\p@ plus2\p@ minus\p@ \itemsep \parsep }\belowdisplayskip \abovedisplayskip \add@extra@listi {sml}Figure taken from \cite  {Alberte:2016izw}. }}{38}{figure.2.3}}
\newlabel{fig:reheating}{{\relax 2.3}{38}{\small Figure taken from \cite {Alberte:2016izw}}{figure.2.3}{}}
\newlabel{eq:br}{{\relax 2.77}{39}{Slow NEC violation by ghost condensation}{equation.2.4.77}{}}
\newlabel{eq:st}{{\relax 2.78}{39}{Slow NEC violation by ghost condensation}{equation.2.4.78}{}}
\newlabel{eq:ft}{{\relax 2.79}{39}{Slow NEC violation by ghost condensation}{equation.2.4.79}{}}
\citation{Alberte:2016izw}
\citation{Alberte:2016izw}
\citation{Alberte:2016izw}
\@writefile{lof}{\contentsline {figure}{\numberline {\relax 2.4}{\ignorespaces \relax \fontsize  {10}{12}\selectfont  \abovedisplayskip 10\p@ plus2\p@ minus5\p@ \abovedisplayshortskip \z@ plus3\p@ \belowdisplayshortskip 6\p@ plus3\p@ minus3\p@ \def \leftmargin \leftmargini \parsep 4.5\p@ plus2\p@ minus\p@ \topsep 9\p@ plus3\p@ minus5\p@ \itemsep 4.5\p@ plus2\p@ minus\p@ {\leftmargin \leftmargini \topsep 6\p@ plus2\p@ minus2\p@ \parsep 3\p@ plus2\p@ minus\p@ \itemsep \parsep }\belowdisplayskip \abovedisplayskip \add@extra@listi {sml}Figure taken from \cite  {Alberte:2016izw}. }}{40}{figure.2.4}}
\newlabel{fig:potential_necv2}{{\relax 2.4}{40}{\small Figure taken from \cite {Alberte:2016izw}}{figure.2.4}{}}
\@writefile{toc}{\contentsline {paragraph}{\nonumberline Fast NEC violation by Hordeski's theory.}{40}{section*.12}}
\citation{Alberte:2016izw}
\citation{Alberte:2016izw}
\citation{Alberte:2016izw}
\citation{Bezrukov:2010jz}
\@writefile{lof}{\contentsline {figure}{\numberline {\relax 2.5}{\ignorespaces \relax \fontsize  {10}{12}\selectfont  \abovedisplayskip 10\p@ plus2\p@ minus5\p@ \abovedisplayshortskip \z@ plus3\p@ \belowdisplayshortskip 6\p@ plus3\p@ minus3\p@ \def \leftmargin \leftmargini \parsep 4.5\p@ plus2\p@ minus\p@ \topsep 9\p@ plus3\p@ minus5\p@ \itemsep 4.5\p@ plus2\p@ minus\p@ {\leftmargin \leftmargini \topsep 6\p@ plus2\p@ minus2\p@ \parsep 3\p@ plus2\p@ minus\p@ \itemsep \parsep }\belowdisplayskip \abovedisplayskip \add@extra@listi {sml}Figure taken from \cite  {Alberte:2016izw}. }}{42}{figure.2.5}}
\newlabel{fig:ansatz}{{\relax 2.5}{42}{\small Figure taken from \cite {Alberte:2016izw}}{figure.2.5}{}}
\@writefile{toc}{\contentsline {section}{\numberline {2.5}Conclusion}{42}{section.2.5}}
\newlabel{sec:conc_necv}{{2.5}{42}{Conclusion}{section.2.5}{}}
\@setckpt{Main/10relax_cc_necv}{
\setcounter{page}{44}
\setcounter{equation}{83}
\setcounter{enumi}{3}
\setcounter{enumii}{0}
\setcounter{enumiii}{0}
\setcounter{enumiv}{0}
\setcounter{footnote}{6}
\setcounter{mpfootnote}{0}
\setcounter{part}{0}
\setcounter{chapter}{2}
\setcounter{section}{5}
\setcounter{subsection}{0}
\setcounter{subsubsection}{0}
\setcounter{paragraph}{0}
\setcounter{subparagraph}{0}
\setcounter{figure}{5}
\setcounter{table}{0}
\setcounter{blindtext}{1}
\setcounter{Blindtext}{5}
\setcounter{blind@countparstart}{0}
\setcounter{blindlist}{0}
\setcounter{blindlistlevel}{0}
\setcounter{blindlist@level}{0}
\setcounter{blind@listcount}{0}
\setcounter{blind@levelcount}{0}
\setcounter{blind@randomcount}{0}
\setcounter{blind@randommax}{0}
\setcounter{blind@pangramcount}{0}
\setcounter{blind@pangrammax}{0}
\setcounter{parentequation}{0}
\setcounter{Item}{18}
\setcounter{Hfootnote}{9}
\setcounter{bookmark@seq@number}{27}
\setcounter{fmfgraph}{0}
\setcounter{section@level}{1}
}
