\relax 
\providecommand\hyper@newdestlabel[2]{}
\citation{Graham:2017hfr}
\citation{Battefeld:2014uga,Brandenberger:2016vhg,Cheung:2016wik}
\@writefile{toc}{\contentsline {chapter}{\numberline {3}Bouncing cosmologies and vorticity in compact extra dimensions}{45}{chapter.3}}
\@writefile{lof}{\addvspace {10\p@ }}
\@writefile{lot}{\addvspace {10\p@ }}
\newlabel{cha:BornAgain}{{3}{45}{Bouncing cosmologies and vorticity in compact extra dimensions}{chapter.3}{}}
\@writefile{toc}{\contentsline {section}{\numberline {3.1}Motivation}{45}{section.3.1}}
\citation{Graham:2017hfr}
\@writefile{toc}{\contentsline {section}{\numberline {3.2}Bounce}{46}{section.3.2}}
\newlabel{eq:Einstein}{{\relax 3.2}{46}{Bounce}{equation.3.2.2}{}}
\newlabel{eq:energy-momentum}{{\relax 3.4}{46}{Bounce}{equation.3.2.4}{}}
\newlabel{eq:Feqs}{{\relax 3.6}{46}{Bounce}{equation.3.2.6}{}}
\newlabel{eq:NECv}{{\relax 3.7}{46}{Bounce}{equation.3.2.7}{}}
\citation{Graham:2017hfr}
\@writefile{lof}{\contentsline {figure}{\numberline {\relax 3.1}{\ignorespaces Sketch of the scale factor $a(t)$ as a function of the cosmic time.  }}{47}{figure.3.1}}
\newlabel{fig:scalefactor}{{\relax 3.1}{47}{Sketch of the scale factor $a(t)$ as a function of the cosmic time}{figure.3.1}{}}
\@writefile{toc}{\contentsline {section}{\numberline {3.3}A class of solutions}{47}{section.3.3}}
\newlabel{eq:metric}{{\relax 3.8}{47}{A class of solutions}{equation.3.3.8}{}}
\newlabel{eq:T00}{{\relax 3.9}{47}{A class of solutions}{equation.3.3.9}{}}
\citation{Graham:2017hfr}
\newlabel{eq:Tii}{{\relax 3.10}{48}{A class of solutions}{equation.3.3.9}{}}
\newlabel{eq:4dappr}{{\relax 3.11}{48}{A class of solutions}{equation.3.3.11}{}}
\newlabel{eq:llimits}{{\relax 3.12}{48}{A class of solutions}{equation.3.3.12}{}}
\newlabel{eq:4dappr2}{{\relax 3.13}{48}{A class of solutions}{equation.3.3.13}{}}
\citation{Graham:2017hfr}
\citation{Csaki:2004ay,Ponton:2012bi}
\citation{Appelquist:1983vs}
\@writefile{toc}{\contentsline {section}{\numberline {3.4}Effective description}{49}{section.3.4}}
\newlabel{eq:metric5D}{{\relax 3.15}{49}{Effective description}{equation.3.4.15}{}}
\citation{Appelquist:1983vs}
\citation{Graham:2017hfr}
\citation{Graham:2017hfr}
\newlabel{eq:S4}{{\relax 3.18}{50}{Effective description}{equation.3.4.18}{}}
\newlabel{eq:G00}{{\relax 3.20}{50}{Effective description}{equation.3.4.20}{}}
\newlabel{eq:Gii}{{\relax 3.21}{50}{Effective description}{equation.3.4.20}{}}
\newlabel{eq:Tefftt}{{\relax 3.22}{51}{Effective description}{equation.3.4.22}{}}
\newlabel{eq:Teffii}{{\relax 3.23}{51}{Effective description}{equation.3.4.22}{}}
\@writefile{toc}{\contentsline {section}{\numberline {3.5}Conclusion}{51}{section.3.5}}
\@setckpt{Main/11nayara_born_again}{
\setcounter{page}{52}
\setcounter{equation}{25}
\setcounter{enumi}{2}
\setcounter{enumii}{0}
\setcounter{enumiii}{0}
\setcounter{enumiv}{0}
\setcounter{footnote}{0}
\setcounter{mpfootnote}{0}
\setcounter{part}{0}
\setcounter{chapter}{3}
\setcounter{section}{5}
\setcounter{subsection}{0}
\setcounter{subsubsection}{0}
\setcounter{paragraph}{0}
\setcounter{subparagraph}{0}
\setcounter{figure}{1}
\setcounter{table}{0}
\setcounter{blindtext}{1}
\setcounter{Blindtext}{5}
\setcounter{blind@countparstart}{0}
\setcounter{blindlist}{0}
\setcounter{blindlistlevel}{0}
\setcounter{blindlist@level}{0}
\setcounter{blind@listcount}{0}
\setcounter{blind@levelcount}{0}
\setcounter{blind@randomcount}{0}
\setcounter{blind@randommax}{0}
\setcounter{blind@pangramcount}{0}
\setcounter{blind@pangrammax}{0}
\setcounter{parentequation}{0}
\setcounter{Item}{20}
\setcounter{Hfootnote}{9}
\setcounter{bookmark@seq@number}{33}
\setcounter{fmfgraph}{0}
\setcounter{section@level}{1}
}
