\relax 
\providecommand\hyper@newdestlabel[2]{}
\providecommand*\new@tpo@label[2]{}
\providecommand\HyperFirstAtBeginDocument{\AtBeginDocument}
\HyperFirstAtBeginDocument{\ifx\hyper@anchor\@undefined
\global\let\oldcontentsline\contentsline
\gdef\contentsline#1#2#3#4{\oldcontentsline{#1}{#2}{#3}}
\global\let\oldnewlabel\newlabel
\gdef\newlabel#1#2{\newlabelxx{#1}#2}
\gdef\newlabelxx#1#2#3#4#5#6{\oldnewlabel{#1}{{#2}{#3}}}
\AtEndDocument{\ifx\hyper@anchor\@undefined
\let\contentsline\oldcontentsline
\let\newlabel\oldnewlabel
\fi}
\fi}
\global\let\hyper@last\relax 
\gdef\HyperFirstAtBeginDocument#1{#1}
\providecommand\HyField@AuxAddToFields[1]{}
\providecommand\HyField@AuxAddToCoFields[2]{}
\@input{Head/titlepage.aux}
\babel@aux{english}{}
\@input{Main/abstract.aux}
\@input{Main/09AbbottBrownTeitelBoim.aux}
\@input{Main/10relax_cc_necv.aux}
\@input{Main/11nayara_born_again.aux}
\bibdata{End/literature}
\bibcite{Abbott:1984qf}{1}
\bibcite{Brown:1987dd}{2}
\bibcite{Brown:1988kg}{3}
\bibcite{Agashe:2014kda}{4}
\bibcite{Kallosh:2002gg}{5}
\bibcite{Weinberg:1987dv}{6}
\bibcite{Vilenkin:1983xq}{7}
\bibcite{Bousso:2007gp}{8}
\bibcite{Peccei:1977hh}{9}
\bibcite{Coleman:1980aw}{10}
\bibcite{Bousso:2000xa}{11}
\bibcite{Guth:1982pn}{12}
\bibcite{Baumann:2009ds}{13}
\bibcite{Feng:2000if}{14}
\bibcite{Alberte:2016izw}{15}
\bibcite{Weinberg:1988cp}{16}
\@writefile{toc}{\contentsline {chapter}{\nonumberline Bibliography}{53}{chapter*.13}}
\@writefile{lof}{\addvspace {10\p@ }}
\@writefile{lot}{\addvspace {10\p@ }}
\bibcite{ArkaniHamed:2003uy}{17}
\bibcite{Horndeski:1974wa}{18}
\bibcite{Deffayet:2011gz}{19}
\bibcite{ArmendarizPicon:1999rj}{20}
\bibcite{Cheung:2007st}{21}
\bibcite{ostro}{22}
\bibcite{Pais:1950za}{23}
\bibcite{Woodard:2006nt}{24}
\bibcite{Motohashi:2014opa}{25}
\bibcite{Solomon:2017nlh}{26}
\bibcite{ArkaniHamed:2003uz}{27}
\bibcite{Ohashi:2012wf}{28}
\bibcite{Jinno:2013fka}{29}
\bibcite{Ema:2015oaa}{30}
\bibcite{Pirtskhalava:2014esa}{31}
\bibcite{Creminelli:2006xe}{32}
\bibcite{Aubourg:2014yra}{33}
\bibcite{Ade:2015rim}{34}
\bibcite{Hsu:2004vr}{35}
\bibcite{Bezrukov:2010jz}{36}
\bibcite{Graham:2017hfr}{37}
\bibcite{Battefeld:2014uga}{38}
\bibcite{Brandenberger:2016vhg}{39}
\bibcite{Cheung:2016wik}{40}
\bibcite{Csaki:2004ay}{41}
\bibcite{Ponton:2012bi}{42}
\bibcite{Appelquist:1983vs}{43}
\bibstyle{Head/JHEP}
\global\@namedef{scr@dte@chapter@lastmaxnumwidth}{10.67618pt}
\global\@namedef{scr@dte@section@lastmaxnumwidth}{18.37404pt}
\global\@namedef{scr@dte@subsection@lastmaxnumwidth}{26.89314pt}
